{
  "default": [
    {
      "image_path": "assets/hero/adventurer-idle-00.png",
      "duration": 200,
      "offset": [-45, 0]
    },
    {
      "image_path": "assets/hero/adventurer-idle-01.png",
      "duration": 200,
      "offset": [-45, 0]
    },
    {
      "image_path": "assets/hero/adventurer-idle-02.png",
      "duration": 200,
      "offset": [-45, 0]
    }
    ],
  "running": [
    {
      "image_path": "assets/hero/adventurer-run-00.png",
      "duration": 100,
      "offset": [-45, 0]
    },
    {
      "image_path": "assets/hero/adventurer-run-01.png",
      "duration": 100,
      "offset": [-45, 0]
    },
    {
      "image_path": "assets/hero/adventurer-run-02.png",
      "duration": 100,
      "offset": [-45, 0]
    },
    {
      "image_path": "assets/hero/adventurer-run-03.png",
      "duration": 100,
      "offset": [-45, 0]
    },
    {
      "image_path": "assets/hero/adventurer-run-04.png",
      "duration": 100,
      "offset": [-45, 0]
    },
    {
      "image_path": "assets/hero/adventurer-run-05.png",
      "duration": 100,
      "offset": [-45, 0]
    }
    ],
  "jumping": [
    {
      "image_path": "assets/hero/adventurer-jump-00.png",
      "duration": 80,
      "offset": [-45, 0]
    },
    {
      "image_path": "assets/hero/adventurer-jump-01.png",
      "duration": 80,
      "offset": [-45, 0]
    },
    {
      "image_path": "assets/hero/adventurer-jump-02.png",
      "duration": 80,
      "offset": [-45, 0]
    },
    {
      "image_path": "assets/hero/adventurer-jump-03.png",
      "duration": 80,
      "offset": [-45, 0]
    }
  ],
  "falling": [
    {
      "image_path": "assets/hero/adventurer-fall-00.png",
      "duration": 100,
      "offset": [-45, 0]
    },
    {
      "image_path": "assets/hero/adventurer-fall-01.png",
      "duration": 100,
      "offset": [-45, 0]
    }
  ]
}